https://raw.githubusercontent.com/nayuki/Project-Euler-solutions/master/java/p034.java
https://raw.githubusercontent.com/zsiciarz/euler.rs/master/src/solutions/problem34.rs
https://raw.githubusercontent.com/kdungs/euler/master/034/euler_34.c
https://www.mathblog.dk/project-euler-34-factorial-digits/
https://github.com/zimpha/competitive-programming/raw/master/project-euler/volume01/34.cc
https://raw.githubusercontent.com/nayuki/Project-Euler-solutions/blob/master/haskell/p034.hs
https://raw.githubusercontent.com/wce-codepals/hacktoberfest-projecteuler/master/solutions/problem-34/solution.py
