https://cc0ma.github.io/los-gremlin/
https://blog.ch4n3.me/51
https://raw.githubusercontent.com/ch4n3-yoon/Lord-of-SQL-Injection/master/1_Gremline.py
https://blog.silnex.kr/level-01-lord-of-sql-injection-gremlin/
https://leeeeye321.tistory.com/168
https://goodasd123.tistory.com/6
https://l0rq2.tistory.com/15
https://eine.tistory.com/entry/Lord-of-SQL-Injection-Level-1-Gremlin-%ED%92%80%EC%9D%B4
https://kkamikoon.tistory.com/174
https://croas.tistory.com/40
