https://raw.githubusercontent.com/JesseClarkND/codeabbey_in_C-NET/master/Variable%20Length%20Code
https://raw.githubusercontent.com/exercism/csharp/master/exercises/two-fer/TwoFerTest.cs
https://raw.githubusercontent.com/exercism/common-lisp/master/exercises/two-fer/two-fer-test.lisp
https://raw.githubusercontent.com/exercism/elisp/master/exercises/two-fer/two-fer-test.el
https://raw.githubusercontent.com/exercism/javascript/master/exercises/two-fer/example.js
https://raw.githubusercontent.com/exercism/pharo-smalltalk/master/exercises/two-fer/TwoFerTest.class.st
https://raw.githubusercontent.com/exercism/powershell/master/exercises/two-fer/TwoFer.tests.ps1
https://raw.githubusercontent.com/chrisdfrey/code-abbey-solutions/master/variable-length-code-unpack.py
https://raw.githubusercontent.com/exercism/swift/master/exercises/two-fer/Tests/TwoFerTests/TwoFerTests.swift
https://raw.githubusercontent.com/exercism/perl5/master/exercises/matrix/matrix.t
https://raw.githubusercontent.com/exercism/typescript/master/exercises/two-fer/two-fer.example.ts
https://raw.githubusercontent.com/ozan/solutions/master/exercism/bash/two-fer/two_fer_test.sh
https://raw.githubusercontent.com/wellingtonsampaio/my-exercism-go-solutions/master/two-fer/example_two_fer_test.go
