https://raw.githubusercontent.com/adityagupta1089/Codeforces-Solutions/master/P614B.java
https://raw.githubusercontent.com/Waqar-107/Codeforces/master/B-set/614B.Gena's%20Code.cpp
https://raw.githubusercontent.com/Waqar-107/Codeforces/master/B-set/614B.Guess%20the%20Permutation.py
