https://raw.githubusercontent.com/zst123/picoctf-2018-writeups/master/Solved/Aca_Shell_A/README.md
https://raw.githubusercontent.com/PlatyPew/picoctf-2018-writeup/master/General%20Skills/Aca-Shell-A/README.md
https://medium.com/@imshiny808/pico-ctf-2018-aca-shell-a-solved-5877c5880993
https://medium.com/@2019pe70061/how-to-solve-aca-shell-a-a5e9a9f8317f
