https://raw.githubusercontent.com/ArnoldM904/CodeAbbey_Solutions/master/Python/id029-Sort_with_Indexes.py
https://raw.githubusercontent.com/gravoo/codeabbey/master/Sort%20with%20Indexes.cpp
https://raw.githubusercontent.com/John-Russell/CodeAbbey/master/Sort%20with%20Indexes.rb
https://raw.githubusercontent.com/madhavbharadwaj/CodeAbbey/master/java_29_Rotate_String.java
https://raw.githubusercontent.com/chriswood/codeabbey/master/caid29.lisp
https://raw.githubusercontent.com/AleksandrSD/CodeAbbeyProblems/master/Problem29/Program.cs
https://raw.githubusercontent.com/mpeshehonov/Codeabbey/master/practice/%2329/index.php
https://raw.githubusercontent.com/mmcdon20/code_abbey/master/src/main/scala/Abbey029.scala
https://raw.githubusercontent.com/McQuinTrix/CodeAbbey/master/29.%20Sort_with_Indexes.js
https://gitlab.com/CodeArtisan/codeabbey/raw/master/problem_29/solution.rkt
