https://raw.githubusercontent.com/texus/codingame/master/Community%20Puzzles/ASCII%20ART%20%3A%20Glass%20Stacking.c
https://raw.githubusercontent.com/pathosDev/CodinGame-Solutions/master/Puzzles/Easy/ASCII%20Art/CSharp.cs
https://raw.githubusercontent.com/pathosDev/CodinGame-Solutions/master/Puzzles/Easy/ASCII%20Art/Java.java
https://raw.githubusercontent.com/pathosDev/CodinGame-Solutions/master/Puzzles/Easy/ASCII%20Art/Python.py
