https://raw.githubusercontent.com/Dalimil/ProjectEuler/master/Project_Euler_Solutions/Problem_%2310_Summation_of_primes.cpp
https://raw.githubusercontent.com/PaulNoth/hackerrank/master/contest/project_euler%2B/010_summation_of_primes/SummationPrimes.java
https://raw.githubusercontent.com/munyari/programming-problems/master/euler/euler-10.rb
