http://null-byte.wonderhowto.com/news/goodnight-byte-hackthissite-realistic-5-real-hacking-simulations-0133439/
https://www.youtube.com/watch?v=NHEdbcVi9YA
https://hackthissitesoltution.wordpress.com/2012/03/08/hts-realistic-mission-5/
http://www.amitghosh.net/hts-realistic-mission-5-solution/
https://www.youtube.com/watch?v=kIqkOqEDxqg
https://www.aldeid.com/wiki/Hackthissite/Realistic/Level5
https://raw.githubusercontent.com/attilathedud/HackThisSite/master/Realistic/README.md
