https://raw.githubusercontent.com/nikzsaz/Codeforces-solution/master/6A-Triangle.cpp
https://codeforces.com/contest/6/submission/2172393
https://codeforces.com/contest/6/submission/2356510
https://codeforces.com/contest/6/submission/7849299
https://codeforces.com/contest/6/submission/457045
https://codeforces.com/contest/6/submission/43910410
https://codeforces.com/contest/6/submission/59669188
https://codeforces.com/contest/6/submission/31360961
https://codeforces.com/contest/6/submission/20368682
https://codeforces.com/contest/6/submission/1702355
https://codeforces.com/contest/6/submission/28384
