http://shadowless.net/blackjack-pwnable/
https://github.com/Macmod/pwnable-writeups/blob/master/toddlers/blackjack.md
https://github.com/victor-li/pwnable.kr-write-ups/blob/master/blackjack.md
https://jeonyoungsin.tistory.com/920?category=878012
