https://raw.githubusercontent.com/luceatnobis/challenges/master/hackquest.com/32/solution
https://raw.githubusercontent.com/ckclark/Hackquest/master/32_Hash_me_baby/32.py
https://raw.githubusercontent.com/ckclark/Hackquest/master/32_Hash_me_baby/Challenge5.java
https://github.com/ckclark/Hackquest/blob/master/32_Hash_me_baby/Challenge5.class
