https://infamoussyn.com/2014/04/30/overthewire-krypton-level-0-5-writeup/#level3
http://c6h4cl2.lab.uy.to/439
http://sithlab.tistory.com/439
https://raw.githubusercontent.com/luceatnobis/challenges/master/overthewire.org/krypton/3/krypton4
https://raw.githubusercontent.com/Lorenyx/OverTheWire-Solutions/master/krypton/level_3.md
