https://www.codeabbey.com/index/task_solution?task=star-medals&user=boerdereinar&lang=C%23
https://www.codeabbey.com/index/task_solution?task=star-medals&user=brian-cheung&lang=Python
https://www.codeabbey.com/index/task_solution?task=star-medals&user=bluknite&lang=Scala
https://www.codeabbey.com/index/task_solution?task=star-medals&user=thsantoli1&lang=Haskell
https://www.codeabbey.com/index/task_solution?task=star-medals&user=vladimir-skvortsov&lang=Ruby
https://www.codeabbey.com/index/task_solution?task=star-medals&user=matthias&lang=JavaScript
https://www.codeabbey.com/index/task_solution?task=star-medals&user=simonrothone&lang=Java.
https://www.codeabbey.com/index/task_solution?task=star-medals&user=betalllll&lang=C%2FC%2B%2B
https://www.codeabbey.com/index/task_solution?task=star-medals&user=guygervais1&lang=VB
https://www.codeabbey.com/index/task_solution?task=star-medals&user=ccgaviria&lang=Ocaml
https://raw.githubusercontent.com/JesseClarkND/codeabbey_in_C-NET/master/Star%20Medals
https://exercism.io/tracks/php/exercises/sum-of-multiples/solutions/5cbbac52b1424210a4a0890de1fa7a62
https://exercism.io/tracks/bash/exercises/sum-of-multiples/solutions/63c0a28c44234f909ddec519fb2cf3ed
https://exercism.io/tracks/d/exercises/sum-of-multiples/solutions/4105cca98d4a4791951f149352110cd3
https://exercism.io/tracks/elm/exercises/sum-of-multiples/solutions/611da708c88d4bc9ae82151e347d9fe6
https://exercism.io/tracks/crystal/exercises/sum-of-multiples/solutions/f81efa814f8c4a89a94fa527e608acd5
https://exercism.io/tracks/kotlin/exercises/sum-of-multiples/solutions/715a61f41609418abb404d50ae4e4458
https://exercism.io/tracks/swift/exercises/sum-of-multiples/solutions/d32c1654ccc941f78ea1601e92419a2a
https://exercism.io/tracks/rust/exercises/sum-of-multiples/solutions/54230e1fac6b46529fc1c9f49f972721
https://exercism.io/tracks/nim/exercises/sum-of-multiples/solutions/2adbae17fdba4bb0945e0ed160156bd9
https://exercism.io/tracks/haskell/exercises/sum-of-multiples/solutions/9d647b38df5047f7b9396be7c4109c27
