https://raw.githubusercontent.com/ZLester/Coderbyte-Solutions/master/Medium/30%20-%20Distinct%20List.js
https://raw.githubusercontent.com/Gamer1092/Coderbyte-Medium/Medium/Distinct%20List.cpp
https://raw.githubusercontent.com/bolducp/coderbyte/master/medium/31_distinct_list.py
