https://raw.githubusercontent.com/adityagupta1089/Codeforces-Solutions/master/P339B.java
https://raw.githubusercontent.com/fuwutu/CodeForces/master/339B%20-%20Xenia%20and%20Ringroad.cpp
https://raw.githubusercontent.com/changyuheng/codeforces-solutions/master/339b.py
