https://raw.githubusercontent.com/MaskRay/HackerRank/master/clique.clj
https://raw.githubusercontent.com/fernandoBRS/HackerRank/master/clique.cpp
https://raw.githubusercontent.com/sanjeev87/HackerRank/master/HackerRank/src/Graph/Clique.java
https://raw.githubusercontent.com/wlisrausr/hackerrank-codes/master/graph-theory/clique.js
https://raw.githubusercontent.com/khaleeque-ansari/HackerRank-Problem-Solutions-Python/master/Graph%20Theory/Clique.py
