https://exercism.io/tracks/bash/exercises/yacht/solutions/496eecca70fb42068222a985fb479694
https://exercism.io/tracks/java/exercises/yacht/solutions/bdec98726c2f42a6b808d6ec87c8983d
https://exercism.io/tracks/python/exercises/yacht/solutions/3bbd04839cb0406abee4c82984c10e31
https://raw.githubusercontent.com/exercism/go/master/exercises/yacht/example.go
