https://raw.githubusercontent.com/LFlare/picoctf_2017_writeup/master/cryptography/computeaes/README.md
https://raw.githubusercontent.com/BOAKGP/CTF-Writeups/master/PicoCTF%202017/Level%201/Cryptography/computeAES/README.md
https://www.youtube.com/watch?v=fw9ksUK7cNU

