https://epi052.gitlab.io/notes-to-self/blog/2018-09-21-hack-the-box-sunday/
https://x4nt0n.github.io/writeups/Sunday/
https://www.youtube.com/watch?v=JMKbK32iC3c
https://www.hackingarticles.in/hack-the-box-sunday-walkthrough/
https://resources.infosecinstitute.com/hack-the-box-htb-walkthrough-sunday/#gref
