https://ratil.life/hack-the-box-bashed/
https://www.youtube.com/watch?v=2DqdPcbYcy8
https://www.youtube.com/watch?v=Jt--ApG1WV0
https://www.youtube.com/watch?v=tbfc-l7w35w
https://www.youtube.com/watch?v=w1ozxwa66os
https://www.youtube.com/watch?v=ppuGxAbPQ_Q
https://infosecuritygeek.com/hackthebox-bashed/
https://blog.mullineaux.com.au/hackthebox-bashed/
https://simonbaeg.com/hackthebox-bashed-walkthrough/
https://securingthe.net/2018/05/05/hackthebox-bashed/
http://www.codemania.it/2018/05/05/hackthebox-bashed-writeup/
https://medium.com/secjuice/hackthebox-bashed-write-up-eceb6b9f6d6f
http://www.hackingarticles.in/hack-the-box-challenge-bashed-walkthrough/
https://video.hacking.reviews/2018/05/hack-box-ctf-walkthrough-bashed.html
https://steemit.com/hackthebox/@austinhudson/hackthebox-bashed-walkthrough
https://www.peerlyst.com/posts/how-to-hackthebox-bashed-machine-writeup-spirited-wolf
