https://raw.githubusercontent.com/kantuni/Codeforces/44df2ad52c7be0f73ce217bac1ad219663f09e40/1141A/game-23.cpp
https://codeforces.com/contest/1141/submission/52044746
https://codeforces.com/contest/1141/submission/52015595
https://codeforces.com/contest/1141/submission/51788152
https://codeforces.com/contest/1141/submission/51829408
https://codeforces.com/contest/1141/submission/52199520
https://codeforces.com/contest/1141/submission/52724025
https://codeforces.com/contest/1141/submission/51556896
https://codeforces.com/contest/1141/submission/51497743
https://codeforces.com/contest/1141/submission/51489088
https://codeforces.com/contest/1141/submission/52285340
