https://raw.githubusercontent.com/charles-wangkai/hackerrank/master/service-lane/Solution.java
https://raw.githubusercontent.com/mattspaulding/hacker-rank/master/HackerRank/Algorithms/Warmup/ServiceLane.cs
https://raw.githubusercontent.com/jaymeforeshew/ServiceLane/master/serviceLane.cc

