https://raw.githubusercontent.com/JesseClarkND/codeabbey_in_C-NET/master/Fahrenheit%20to%20Celsius
https://raw.githubusercontent.com/PunitGr/codeabbey/master/Fahrenheit%20to%20Celcius.py
https://raw.githubusercontent.com/marclerodrigues/ruby_exercises/master/fahrenheit-celsius.rb
https://raw.githubusercontent.com/gravoo/codeabbey/master/%20Fahrenheit%20to%20Celsius%20.cpp
https://raw.githubusercontent.com/Alackey/codeabbey-projects/master/Fahrenheit%20to%20Celsius/src/Main.java
https://raw.githubusercontent.com/Tempurturtul/CodeAbbey/master/C%23/FahrenheitToCelsius.cs
https://raw.githubusercontent.com/jsenne/Code-Abbey-Solutions/master/007_fahrenheitToCelcius.js
https://raw.githubusercontent.com/chriswood/codeabbey/master/ca8.lisp
https://raw.githubusercontent.com/RyanLafferty/CodeAbbey/master/p7.c
https://raw.githubusercontent.com/mpeshehonov/Codeabbey/master/practice/%237/index.php
https://raw.githubusercontent.com/mmcdon20/code_abbey/master/src/main/scala/Abbey007.scala
https://raw.githubusercontent.com/YetAnotherMinion/YAMScratch/master/CodeAbbey/rust-sol/src/7.rs
https://raw.githubusercontent.com/vinitkantrod/go-codeabbey/master/07_rounding/main.go
https://raw.githubusercontent.com/SmellyIrishMan/CodeAbbeyProblems/master/CodeAbbeyProblems/TempConversion.fs
https://raw.githubusercontent.com/skilled19/sols/master/harv/codeabbey-7-fahrenheit-celsius.jl
https://raw.githubusercontent.com/skilled19/sols/master/harv/codeabbey-7-fahrenheit-celsius.pl
https://raw.githubusercontent.com/skilled19/sols/master/harv/codeabbey-7-fahrenheit-celsius.vb
https://raw.githubusercontent.com/SebastianHerrera/DartProblems/master/fahrenheit_to_celsius.dart
