https://raw.githubusercontent.com/PlatyPew/picoctf-2018-writeup/master/Binary%20Exploitation/buffer%20overflow%200/README.md
https://ctftime.org/writeup/13264
https://www.youtube.com/watch?v=kPLdrHWkrQc
https://raw.githubusercontent.com/Dvd848/CTFs/master/2018_picoCTF/buffer%20overflow%200.md
https://raw.githubusercontent.com/mzfr/ctf-writeups/master/picoCTF-2018/Binary%20exploitation/buffer%20overflow%200/readme.md
https://raw.githubusercontent.com/zst123/picoctf-2018-writeups/master/Solved/buffer_overflow_0/README.md
https://tcode2k16.github.io/blog/posts/picoctf-2018-writeup/binary-exploitation/#solution
https://wannabyte.xyz/2018/10/picoctf-buffer-overflow-0/
https://www.youtube.com/watch?v=sLsgSC6ViS8
https://zomry1.github.io/buffer-overflow-0/
