https://www.youtube.com/watch?v=mF5sCBM2lho
https://hackthissitesoltution.wordpress.com/category/basic-missions/
http://5h1vang.blogspot.com.co/2013/08/hackthissiteorg-basic-challenge-7.html
http://sp4hack.blogspot.com.co/2012/09/hack-this-site-basic-7.html
http://crackandsecure.blogspot.com.co/2011/04/hack-this-site-hts-basic-7.html
http://htstutorial.blogspot.com.co/2009/07/hts-basic-mission-7.html
http://www.amitghosh.net/hts-basic-mission-7-solution/
https://es.slideshare.net/ciskosv/hackthissite-3402645
http://blog.abhishekg.com/2011/12/basic-7-unix/
https://github.com/DivyanshuSahu/HackThisSite/blob/master/Basic/files/7solved.png
https://www.aldeid.com/wiki/Hackthissite/Basic/Level7
https://www.youtube.com/watch?v=iBfxWu9WCDg
http://truemiller.com/2017/09/hack-this-site-all-basic-solutions/#basic_7
https://github.com/attilathedud/HackThisSite/tree/master/Basic
https://www.youtube.com/watch?v=5wHUpPyYL1Q&list=PL38E72D34562DC6A8&index=7
