https://raw.githubusercontent.com/linuxp3nguin/microcorruption-1/master/CTF/HA
https://ctfwriteup.wordpress.com/2014/05/03/microcorruption-hanoi/
https://destinaxe.wordpress.com/2015/02/08/microcorruption-ctf-hanoi/
http://piratezpdx.blogspot.com.co/2014/09/microcorruption-hanoi.html
http://jpaglier.blogspot.com.co/2015/02/microcorruption-iii-hanoi.html
http://ctfunhax00r.blogspot.com.co/2017/01/microcorruption-hanoi.html
https://www.youtube.com/watch?v=4Dd4XkJlEvc
https://github.com/ciz/microcorruption#hanoi
