https://www.youtube.com/watch?v=pbPLNS-BUdI
https://www.youtube.com/watch?v=WmhsP0r49S0
http://sp4hack.blogspot.com.co/2012/09/hack-this-site-javascript-4.html
http://www.gensale.net/hts-javascript-level-4/
https://hackthissitesoltution.wordpress.com/2011/01/14/javascript-missions/
https://bitbelle.wordpress.com/2018/01/10/hackthissite-javascript-mission-solutions/
http://blog.abhishekg.com/2011/12/javascript-mission-4-var/
