https://coderinme.com/anagram-hackerrank-problem-solution/
https://raw.githubusercontent.com/charles-wangkai/hackerrank/master/java-anagrams/Solution.java
https://raw.githubusercontent.com/codebytere/hackerrank/master/Algorithms/Strings/anagram.py
https://raw.githubusercontent.com/MaskRay/HackerRank/master/anagram.rb
