http://www.amitghosh.net/hts-realistic-mission-14-solution/
http://zer0byte.com/2011/11/14/hackthissite-org-realistic-mission-1-%E2%80%93-16-walk-throughs/
https://www.youtube.com/watch?v=YAtHVLJW078
https://www.youtube.com/watch?v=QB4abPhLams
https://www.aldeid.com/wiki/Hackthissite/Realistic/Level14
https://raw.githubusercontent.com/luceatnobis/challenges/master/hackthissite.org/real/7/hash
