https://raw.githubusercontent.com/nayuki/Project-Euler-solutions/master/java/p101.java
https://raw.githubusercontent.com/nayuki/Project-Euler-solutions/master/python/p101.py
https://www.mathblog.dk/project-euler-101-optimum-polynomial-function/
