http://3735943886.com/78
https://ddddh.tistory.com/28
http://blog.naver.com/PostView.nhn?blogId=wlstngus0504&logNo=220627132257&parentCategoryNo=&categoryNo=201&viewDate=&isShowPopularPosts=true&from=search
https://einai.tistory.com/entry/%EB%AC%B8%EC%A0%9C%ED%92%80%EC%9D%B4-reversingkr-Adventure
