https://raw.githubusercontent.com/nayuki/Project-Euler-solutions/master/java/p045.java
https://raw.githubusercontent.com/zsiciarz/euler.rs/master/src/solutions/problem45.rs
https://www.mathblog.dk/project-euler-45-next-triangle-pentagonal-hexagonal-number/
https://raw.githubusercontent.com/zimpha/competitive-programming/master/project-euler/volume01/45.cc
https://raw.githubusercontent.com/nayuki/Project-Euler-solutions/blob/master/haskell/p045.hs
