https://raw.githubusercontent.com/adityagupta1089/Codeforces-Solutions/master/P443A.java
https://raw.githubusercontent.com/dwiajik/codeforces/master/443A.py
https://codemanic.wordpress.com/2016/08/31/codeforces443a-anton-and-letters/
