https://raw.githubusercontent.com/derekhh/HackerRank/master/sherlock-and-square.cpp
https://raw.githubusercontent.com/RodneyShag/HackerRank_solutions/master/General%20Programming/Basic%20Programming/Sherlock%20and%20Squares/Solution.java
http://pidanic.com/en/blog/hackerrank-sherlock-squares/#javascript
https://raw.githubusercontent.com/andrewrk/hackerrank/master/sherlock-and-squares/main.rs
http://pidanic.com/en/blog/hackerrank-sherlock-squares/#ruby
http://pidanic.com/en/blog/hackerrank-sherlock-squares/#scala
