https://raw.githubusercontent.com/dvirazulay/homework/master/intro/assignment5/Triangle.java
https://raw.githubusercontent.com/mmp/pbrt-v3/master/src/shapes/triangle.cpp
https://raw.githubusercontent.com/libigl/triangle/master/triangle.c
https://raw.githubusercontent.com/mapbox/earcut/master/src/earcut.js
https://raw.githubusercontent.com/ArnoldM904/CodeAbbey_Solutions/master/Python/id104-Triangle_Area.py
https://gist.githubusercontent.com/mmakowski/379028/raw/51a452c48db5f94fce369e2e5ead0ba98bc45d75/AreaCalculator.scala
https://raw.githubusercontent.com/AleksandrSD/CodeAbbeyProblems/master/Problem104/Program.cs
https://exercism.io/tracks/bash/exercises/triangle/solutions/0d4974198da74e3fbf239063af0e13ce
https://exercism.io/tracks/dart/exercises/triangle/solutions/1b4ecece5ff74837abf4295d430c2177
https://exercism.io/tracks/kotlin/exercises/triangle/solutions/b6e96240e96d4b7f9835442762d08974
https://exercism.io/tracks/perl5/exercises/triangle/solutions/eaba8ccee9ed458783f02f6e282b1cb2
https://exercism.io/tracks/php/exercises/triangle/solutions/aca75bab9d4c4f128fa0d417c550f51e
https://exercism.io/tracks/ruby/exercises/triangle/solutions/2ebb051b664344beab84babdfe716cee
https://exercism.io/tracks/nim/exercises/triangle/solutions/eff91e3034ac4c76ab594e6cc0b23b04
https://exercism.io/tracks/lua/exercises/triangle/solutions/c01a24d3a02d45568b1f2cfcf168a413
https://exercism.io/tracks/groovy/exercises/triangle/solutions/813ecf430bfe449bb57fc8dcf68b2a93
https://exercism.io/tracks/haskell/exercises/triangle/solutions/7ea2ea08aaee4d0099d3e1e4a9588e29
https://raw.githubusercontent.com/Mister-GoodwinLu/CodeAbbey/master/Triangle%20area
