0 0 0 0 0 1 1 1 1 2 2 2 2 2 2 3 4 5 6 6 7 8 9 9 10 10 10 10 10 10 11 11 12 13 14 15 16 16 17 18
42 42
34 33
41 52
0 0 0 0 0 1 1 1 2 3 3 4 5 5 5 6 7 8 9 9 9 9 9 9 9 10 11 11 12 13 13 13 13 13 14 15 15 15 15 16
30 47
36 55
43 62
0 0 0 0 0 0 1 1 1 1 2 3 3 3 3 3 4 5 5 6 7 7 8 8 8 9 9 10 11 12 13 13 13 13 14 14 15 16 16 17
42 37
37 32
32 52
