https://raw.githubusercontent.com/nayuki/Project-Euler-solutions/master/java/p044.java
https://raw.githubusercontent.com/sile/euler.rs/master/euler_01/src/problem044.rs
https://www.mathblog.dk/project-euler-44-smallest-pair-pentagonal-numbers/
https://raw.githubusercontent.com/zimpha/competitive-programming/master/project-euler/volume01/44.cc
https://raw.githubusercontent.com/nayuki/Project-Euler-solutions/blob/master/mathematica/p044.mathematica
https://raw.githubusercontent.com/wce-codepals/hacktoberfest-projecteuler/master/solutions/problem-44/solution.cpp
