https://raw.githubusercontent.com/RakibulRanak/Solved-ACM-problems/master/Hate%20A%20CF%201146B.cpp
https://codeforces.com/contest/1146/submission/53062702
https://codeforces.com/contest/1146/submission/53105380
https://codeforces.com/contest/1146/submission/53064629
https://codeforces.com/contest/1146/submission/53063721
https://codeforces.com/contest/1146/submission/53117104
https://codeforces.com/contest/1146/submission/53963998
https://codeforces.com/contest/1146/submission/53060072
https://codeforces.com/contest/1146/submission/53058848
https://codeforces.com/contest/1146/submission/53065911
