https://www.youtube.com/watch?v=OTonV6ZlFIk
https://www.youtube.com/watch?v=cL5og27VejA
https://www.youtube.com/watch?v=_quAVSmUbdU
http://sp4hack.blogspot.com.co/2012/09/hack-this-site-javascript-7.html
http://blog.abhishekg.com/2011/12/javascript-mission-7-js-obfuscation-ftw/
https://hackthissitesoltution.wordpress.com/2011/01/14/javascript-missions/
https://raw.githubusercontent.com/attilathedud/HackThisSite/master/Javascript/README.md
https://bitbelle.wordpress.com/2018/01/10/hackthissite-javascript-mission-solutions/
