https://www.youtube.com/watch?v=blAxTfcW9VU&t=194s
https://github.com/njk464/pwnable.kr/blob/master/fd.sol
https://raw.githubusercontent.com/USCGA/writeups/master/pwnable.kr/fd/README.md
https://github.com/smholsen/pwnable.kr/blob/master/1-fd/readme.md
https://gist.github.com/ihciah/0ca68da3e32e38818bb9#1-fd
https://www.youtube.com/watch?v=QjYSaRKew64
https://www.youtube.com/watch?v=Nmoi9UoiuBM
https://www.youtube.com/watch?v=971eZhMHQQw
