https://raw.githubusercontent.com/ZLester/Coderbyte-Solutions/master/Medium/05%20-%20Division.js
https://raw.githubusercontent.com/Gamer1092/Coderbyte-Medium/Medium/Division.cpp
https://raw.githubusercontent.com/designerGenes/CoderbyteInSwift/master/Division/Division.playground/Contents.swift
https://raw.githubusercontent.com/bolducp/coderbyte/master/medium/05_division.py
