https://raw.githubusercontent.com/MaskRay/HackerRank/master/common-child.cc
https://raw.githubusercontent.com/BlakeBrown/HackerRank-Solutions/master/Algorithms/Strings/Common%20Child%20(largest%20subsequence).cpp
https://raw.githubusercontent.com/charles-wangkai/hackerrank/master/common-child/Solution.java
https://raw.githubusercontent.com/vivekshah20/hackerrank-solutions/master/algorithms/common-child/common-child.py
