https://www.youtube.com/watch?v=JrosYiCxDyM
https://hackso.me/lampiao-1-walkthrough/
https://www.peerlyst.com/posts/how-to-break-into-lampiao-1-machine-writeup-spirited-wolf
https://www.youtube.com/watch?v=xtAYwQZhBEo
https://www.youtube.com/watch?v=XgTrslzEy1Q
https://github.com/gameFace22/vulnhub-walkthrough/blob/master/lampiao.md
https://www.rootnetsec.com/vulnhub-lampiao/
https://gamerjack.com/18/
