https://raw.githubusercontent.com/fuwutu/CodeForces/master/108A%20-%20Palindromic%20Times.cpp
https://raw.githubusercontent.com/mkirsche/Codeforces/master/108-A/108-A-2830131.java
https://raw.githubusercontent.com/changyuheng/codeforces-solutions/master/108a.py
