https://raw.githubusercontent.com/dwiajik/codeforces/master/122A.py
https://raw.githubusercontent.com/mpfeifer1/Codeforces/master/122a.cpp
https://raw.githubusercontent.com/yeicol/CodeForces/master/CF122ALuckyDivision.java
