https://raw.githubusercontent.com/igor-kutepov/codeabbey/master/src/main/java/com/kutepov/samples/codeabbey/SimpleLinearRegression.java
https://raw.githubusercontent.com/JesseClarkND/codeabbey_in_C-NET/master/Simple%20Linear%20Regression
https://raw.githubusercontent.com/pepinu/practise/master/CA/Simple%20Linear%20Regression.py
https://raw.githubusercontent.com/aluxian/CPP-ML-LinearRegression/master/LinearRegression.cpp
https://www.geeksforgeeks.org/simple-linear-regression-using-r/
