https://raw.githubusercontent.com/adityagupta1089/Codeforces-Solutions/master/P31A.java
https://raw.githubusercontent.com/adityagupta1089/Codeforces-Solutions/master/P31A.py
https://raw.githubusercontent.com/AkashChandrakar/codeforces-solutions/master/c%2B%2B/31-A-15501509.cpp
