https://exercism.io/tracks/bash/exercises/rotational-cipher/solutions/3df84d7889c843d787c6f9456b86d242
https://exercism.io/tracks/erlang/exercises/rotational-cipher/solutions/73f90c18f6ba4c0c89bc2ca1a86b36a4
https://exercism.io/tracks/fsharp/exercises/rotational-cipher/solutions/96bdbd971695404ebc678db311cdb4c2
https://exercism.io/tracks/haskell/exercises/rotational-cipher/solutions/a22b2b8d083c4c089c18a60226481d15
https://exercism.io/tracks/java/exercises/rotational-cipher/solutions/fc2fa583eb3e47ee89ab528187d23eb2
https://exercism.io/tracks/javascript/exercises/rotational-cipher/solutions/24ed876f221e4bc2a8a800c32add413f
https://exercism.io/tracks/julia/exercises/rotational-cipher/solutions/f6342834abc740aabeb24ac82516ded6
https://exercism.io/tracks/kotlin/exercises/rotational-cipher/solutions/bbdb1206cbf340f9994997df6d0f8770
https://exercism.io/tracks/python/exercises/rotational-cipher/solutions/e11e61ded3604be2831392ea000eb720
https://exercism.io/tracks/swift/exercises/rotational-cipher/solutions/8c9b8b41ec3847c599ce57b822fad69b
