https://d7x.promiselabs.net/2018/07/26/ctf-jarbas-1-vulnhub-ctf-walkthrough/
https://hackso.me/jarbas-1-walkthrough/
http://www.hackingarticles.in/hack-the-jarbas-1-ctf-challenge/
https://www.tnirmal.com.np/2018/07/vulnhub-jarbas-1-walkthrough.html
https://www.youtube.com/watch?v=GVWPVZ0uRpU
