https://cysecguide.blogspot.com/2018/04/root-me-write-up-elf-x64-stack-buffer.html
http://blog.bluecast.tech/2019/03/24/elf-x86-stack-buffer-overflow-basic-1/
https://raw.githubusercontent.com/Hadopire/Root-me-App-Systeme/master/ELF32-Stack_buffer_overflow_basic_1/ELF32-Stack_buffer_overflow_basic_1.sh
https://raw.githubusercontent.com/s1syphu5/RootMe-Challenges/master/System/ELF%20x64%20-%20Stack%20buffer%20overflow%20-%20basic/README.md
