https://raw.githubusercontent.com/akalin/cryptopals-python3/master/challenge29.py
https://raw.githubusercontent.com/Daeinar/cryptopals/master/src/c29.rs
https://raw.githubusercontent.com/technion/matasano_challenge/master/set4/chal29/chal29.rb
