https://www.youtube.com/watch?v=VRiN9M0v3ZQ
https://www.youtube.com/watch?v=OeAHJbBzpk4
https://www.youtube.com/watch?v=s077G2Seofc
https://www.youtube.com/watch?v=hEwn_2SLENs
https://www.youtube.com/watch?v=f7C-Q1ZBUso
https://www.youtube.com/watch?v=0um-_4SvPg0
https://www.youtube.com/watch?v=wKjRwJTXQH4
https://www.youtube.com/watch?v=uAFfySJ1nGY
https://www.youtube.com/watch?v=sHsnH1u03e4
https://www.youtube.com/watch?v=AziwkxJOdu4
