https://www.youtube.com/watch?v=GuamLcJyffY&t=4s
https://github.com/njk464/pwnable.kr/blob/master/col.sol
https://github.com/smholsen/pwnable.kr/blob/master/2-collision/readme.md
https://gist.github.com/ihciah/0ca68da3e32e38818bb9#2-collision
https://www.youtube.com/watch?v=Nmoi9UoiuBM

